…
Use the function `compute_windows()` to examine the windows calculated
by `slide_imp()` before imputation.

``` r
location <- seq_len(ncol(chr1_beta)) # 1, 2, ..., 2000 for this simulated chromosome

# Examine the windows calculated by `slide_imp()`
windows <- compute_windows(
  location,
  window_size = 50,
  overlap_size = 5,
  min_window_n = 11
)
windows
#> # A tibble: 45 × 4
#>    start   end window_n keep 
#>    <int> <int>    <int> <lgl>
#>  1     1    50       50 TRUE 
#>  2    46    95       50 TRUE 
#>  3    91   140       50 TRUE 
#>  4   136   185       50 TRUE 
#>  5   181   230       50 TRUE 
#>  6   226   275       50 TRUE 
#>  7   271   320       50 TRUE 
#>  8   316   365       50 TRUE 
#>  9   361   410       50 TRUE 
#> 10   406   455       50 TRUE 
#> # ℹ 35 more rows
…
